{
    "name": "Cidade",
    "fields": [
        {
            "fieldName": "nome",
            "fieldType": "String"
        },
        {
            "fieldName": "latitude",
            "fieldType": "String"
        },
        {
            "fieldName": "longitude",
            "fieldType": "String"
        },
        {
            "fieldName": "latitudeDouble",
            "fieldType": "Double"
        },
        {
            "fieldName": "longitudeDouble",
            "fieldType": "Double"
        },
        {
            "fieldName": "sameAs",
            "fieldType": "String"
        }
    ],
    "relationships": [
        {
            "relationshipType": "many-to-one",
            "otherEntityName": "cidade",
            "otherEntityRelationshipName": "cidade",
            "relationshipName": "belongsTo",
            "otherEntityField": "nome"
        },
        {
            "relationshipType": "many-to-one",
            "otherEntityName": "estado",
            "otherEntityRelationshipName": "cidade",
            "relationshipName": "estado",
            "otherEntityField": "nome"
        }
    ],
    "changelogDate": "20190617131011",
    "entityTableName": "cidade",
    "dto": "mapstruct",
    "pagination": "pagination",
    "service": "serviceImpl",
    "jpaMetamodelFiltering": true,
    "fluentMethods": true,
    "clientRootFolder": "",
    "applications": "*"
}