{
    "name": "PontoTracadoTrajeto",
    "fields": [
        {
            "fieldName": "latitude",
            "fieldType": "Double"
        },
        {
            "fieldName": "longitude",
            "fieldType": "Double"
        },
        {
            "fieldName": "posicao",
            "fieldType": "Integer"
        },
        {
            "fieldName": "tipo",
            "fieldType": "Tipo",
            "fieldValues": "IDA,VOLTA,TRACADO"
        }
    ],
    "relationships": [
        {
            "relationshipType": "many-to-one",
            "otherEntityName": "linha",
            "otherEntityRelationshipName": "itinerario",
            "relationshipName": "linha",
            "otherEntityField": "id"
        }
    ],
    "changelogDate": "20190617131016",
    "entityTableName": "ponto_tracado_trajeto",
    "dto": "mapstruct",
    "pagination": "pagination",
    "service": "serviceImpl",
    "jpaMetamodelFiltering": true,
    "fluentMethods": true,
    "clientRootFolder": "",
    "applications": "*"
}