id;nome;sigla
1;schemas Specialist China;quantify multi-byte
2;interface Cotton Robust;user-centric Infrastructure
3;Managed Dobra application;Fantastic
4;Liechtenstein Buckinghamshire monetize;Direct
5;Small Frozen Salad bypassing;time-frame Quality
6;Borders Borders Practical;methodical
7;Pakistan;parse
8;neural Wooden Optimization;Tasty Rubber Car mindshare EXE
9;bandwidth Liaison;program Auto Loan Account Refined
10;infomediaries;Fantastic Fresh Salad
